Encelia Data – Portfolio
…
Warning: glm.fit: fitted probabilities numerically 0 or 1 occurred
Warning: glm.fit: fitted probabilities numerically 0 or 1 occurred

mapped_pred_df <- mapped_pred |>
  bind_rows(
    .id = "fold"
  )

mapped_pred_df |>
  select(
    fold, Species, pred_all, pred_no_disk, pred_no_rays, pred_no_diameter, pred_no_stem, pred_2, pred_null
  )

# A tibble: 79 × 9
   fold  Species  pred_all pred_no_disk pred_no_rays pred_no_diameter
   <chr> <fct>       <dbl>        <dbl>        <dbl>            <dbl>
 1 1     C        1.55e- 3      9.79e-3     4.62e- 3         7.99e- 3
 2 1     C        8.43e- 6      3.16e-2     2.97e- 4         1.29e- 3
 3 1     C        1.46e- 2      2.99e-2     2.73e- 5         4.59e- 5
 4 1     C        4.52e- 5      5.60e-4     2.63e- 5         5.21e- 4
 5 1     C       NA            NA          NA               NA       
 6 1     C       NA            NA          NA               NA       
 7 1     C       NA            NA          NA               NA       
 8 1     C        1.68e- 5      1.60e-5     6.56e- 4         5.55e- 2
 9 1     C        2.22e-16      6.17e-9     2.45e-12         2.02e-11
10 1     C        2.59e- 3      1.28e-2     7.08e- 1         4.76e- 1
# ℹ 69 more rows
# ℹ 3 more variables: pred_no_stem <dbl>, pred_2 <dbl>, pred_null <dbl>
…
predictions |>
  select(
    model, fold, Species, .pred_C, .pred_F
  )

# A tibble: 553 × 5
   model            fold  Species .pred_C    .pred_F
   <chr>            <chr> <fct>     <dbl>      <dbl>
 1 pred_all         1     C         0.998 0.00155   
 2 pred_no_disk     1     C         0.990 0.00979   
 3 pred_no_rays     1     C         0.995 0.00462   
 4 pred_no_diameter 1     C         0.992 0.00799   
 5 pred_no_stem     1     C         0.655 0.345     
 6 pred_2           1     C         0.987 0.0134    
 7 pred_null        1     C         0.475 0.525     
 8 pred_all         1     C         1.00  0.00000843
 9 pred_no_disk     1     C         0.968 0.0316    
10 pred_no_rays     1     C         1.00  0.000297  
# ℹ 543 more rows
…
encelia_final_glm <- glm(Species ~ number_rays + disk_diameter + ray_diameter + stem_length, data = encelia_train, family = "binomial")

encelia_prediction <- encelia_final_glm |>
  augment(newdata = encelia_test, type.predict = "response") |>
  mutate(
    .pred_F = .fitted,
    .pred_C = 1 - .pred_F,
    .pred_species = if_else(.fitted >= 0.5, "F", "C")|>
      as.factor()
  )

encelia_prediction |>
  select(Species, .pred_species, .pred_C, .pred_F)

# A tibble: 21 × 4
   Species .pred_species   .pred_C     .pred_F
   <fct>   <fct>             <dbl>       <dbl>
 1 F       F             0.00224   0.998      
 2 C       C             1.00      0.000289   
 3 C       F             0.0000531 1.00       
 4 F       F             0.000784  0.999      
 5 C       C             1.00      0.000000154
 6 C       C             0.987     0.0133     
 7 F       F             0.0000143 1.00       
 8 F       F             0.000376  1.00       
 9 F       F             0.0000747 1.00       
10 C       F             0.225     0.775      
# ℹ 11 more rows
…
